INDEX VERSION 1.129+E:\School\eclipse\.metadata\.plugins\org.eclipse.jdt.core
3215107223.index
3059247668.index
7837769.index
1977847669.index
1318169650.index
3560634443.index
85802400.index
1187815042.index
4006762668.index
2441422367.index
315444269.index
1960558229.index
2197564339.index
4245641324.index
15856018.index
2528545037.index
2668776197.index
4243451801.index
586755605.index
